[
    {
        "id": 1,
        "username": "arojas",
        "name": "Antonio Rojas",
        "email": "arojas@dogeplace.com",
        "phone": "1234567"
    },
    {
        "id": 2,
        "username": "gcarbajal",
        "name": "Giuliana Carbajal",
        "email": "gcarbajal@dogeplace.com",
        "phone": "1234567"
    },
    {
        "id": 3,
        "username": "cperez",
        "name": "Carlos Perez",
        "email": "cperez@dogeplace.com",
        "phone": "2222222",
        "points": 36
    },
    {
        "id": 4,
        "username": "jlopez",
        "name": "Julian Lopez",
        "email": "jlopez@dogeplace.com",
        "phone": "1234567"
    },
    {
        "username": "newuser",
        "name": "New User",
        "email": "newuser@dogeplace.com",
        "phone": "5555555",
        "id": 5
    },
    {
        "username": "newuser",
        "name": "New User",
        "email": "newuser@dogeplace.com",
        "phone": "5555555",
        "id": 6
    },
    {
        "username": "newuser",
        "name": "New User",
        "email": "newuser@dogeplace.com",
        "phone": "5555555",
        "id": 7
    },
    {
        "username": "newuser",
        "name": "New User",
        "email": "newuser@dogeplace.com",
        "phone": "5555555",
        "id": 8
    },
    {
        "username": "newuser",
        "name": "New User",
        "email": "newuser@dogeplace.com",
        "phone": "5555555",
        "id": 9
    },
    {
        "username": "newuser",
        "name": "New User",
        "email": "newuser@dogeplace.com",
        "phone": "5555555",
        "id": 10
    },
    {
        "username": "newuser",
        "name": "New User",
        "email": "newuser@dogeplace.com",
        "phone": "5555555",
        "id": 11
    },
    {
        "username": "newuser",
        "name": "New User",
        "email": "newuser@dogeplace.com",
        "phone": "5555555",
        "id": 12
    },
    {
        "username": "newuser",
        "name": "New User",
        "email": "newuser@dogeplace.com",
        "phone": "5555555",
        "id": 13
    },
    {
        "username": "newuser",
        "name": "New User",
        "email": "newuser@dogeplace.com",
        "phone": "5555555",
        "id": 14
    },
    {
        "username": "newuser",
        "name": "New User",
        "email": "newuser@dogeplace.com",
        "phone": "5555555",
        "id": 15
    },
    {
        "username": "newuser",
        "name": "New User",
        "email": "newuser@dogeplace.com",
        "phone": "5555555",
        "id": 16
    },
    {
        "username": "newuser",
        "name": "New User",
        "email": "newuser@dogeplace.com",
        "phone": "5555555",
        "id": 17
    },
    {
        "username": "newuser",
        "name": "New User",
        "email": "newuser@dogeplace.com",
        "phone": "5555555",
        "id": 18
    },
    {
        "username": "newuser",
        "name": "New User",
        "email": "newuser@dogeplace.com",
        "phone": "5555555",
        "id": 19
    },
    {
        "username": "newuser",
        "name": "New User",
        "email": "newuser@dogeplace.com",
        "phone": "5555555",
        "id": 20
    },
    {
        "username": "newuser",
        "name": "New User",
        "email": "newuser@dogeplace.com",
        "phone": "5555555",
        "id": 21
    },
    {
        "username": "newuser",
        "name": "New User",
        "email": "newuser@dogeplace.com",
        "phone": "5555555",
        "id": 22
    },
    {
        "username": "newuser",
        "name": "New User",
        "email": "newuser@dogeplace.com",
        "phone": "5555555",
        "id": 23
    },
    {
        "username": "newuser",
        "name": "New User",
        "email": "newuser@dogeplace.com",
        "phone": "5555555",
        "id": 24
    }
]